{
    "currency": "USD",
    "end_date": "2021-05-18",
    "entity": "soccer_103",
    "sponsors": {
        "entity": {
            "non_official": {
                "sponsors": [
                    {
                        "entity_id": "tim",
                        "hashtags": 0,
                        "image_url": "https://scontent-iad3-2.xx.fbcdn.net/v/t1.6435-1/cp0/p50x50/71861454_2795056760529165_3030345619148374016_n.png?_nc_cat=111&ccb=1-3&_nc_sid=dbb9e7&_nc_ohc=nY154iOYiUAAX-tUhgX&_nc_ht=scontent-iad3-2.xx&tp=30&oh=6ec39b4ee4c33c773682f7f6df599b60&oe=60D0F596",
                        "impressions": 0,
                        "mentions": 0,
                        "name": "TIM",
                        "pictures": 0,
                        "posts": 0,
                        "tags": 0,
                        "total_engagement": 0,
                        "url": "https://www.blinkfire.com/advertiser/brand/tim",
                        "url_clicks": 0,
                        "valuation": 0.0,
                        "videos": 0
                    },
                    {
                        "entity_id": "ichnusa",
                        "hashtags": 0,
                        "image_url": "https://scontent-iad3-2.xx.fbcdn.net/v/t1.18169-1/cp0/p50x50/22195495_1424420810973915_8099428948463155918_n.jpg?_nc_cat=102&ccb=1-3&_nc_sid=dbb9e7&_nc_ohc=JwwpCuIgSuAAX_6zlHs&_nc_ht=scontent-iad3-2.xx&tp=27&oh=de368c213b743c00a4fcbbc3fb49d841&oe=60CECA50",
                        "impressions": 0,
                        "mentions": 0,
                        "name": "Ichnusa",
                        "pictures": 0,
                        "posts": 0,
                        "tags": 0,
                        "total_engagement": 0,
                        "url": "https://www.blinkfire.com/advertiser/brand/ichnusa",
                        "url_clicks": 0,
                        "valuation": 0.0,
                        "videos": 0
                    }
                ],
                "totals": {
                    "hashtags": 0,
                    "impressions": 0,
                    "mentions": 0,
                    "name": "entity",
                    "pictures": 0,
                    "posts": 0,
                    "tags": 0,
                    "total_engagement": 0,
                    "url_clicks": 0,
                    "valuation": 0.0,
                    "videos": 0
                }
            },
            "official": {
                "sponsors": [
                    {
                        "entity_id": "puma",
                        "hashtags": 38877,
                        "image_url": "https://lh3.googleusercontent.com/RZY4kwRhJEEUXgCL4hDPCKk0rsv_vwLUF_Q9pxnFDuyXad-1JsrKFeF40UNICeuGbzyoZkCXRNr0Od3wfTxlJDBMhugk",
                        "impressions": 7495169,
                        "mentions": 0,
                        "name": "Puma",
                        "pictures": 158721,
                        "posts": 27,
                        "tags": 0,
                        "total_engagement": 287316,
                        "url": "https://www.blinkfire.com/advertiser/brand/puma",
                        "url_clicks": 185,
                        "valuation": 121206.97,
                        "videos": 128595
                    },
                    {
                        "entity_id": "skrill",
                        "hashtags": 0,
                        "image_url": "https://scontent-iad3-2.xx.fbcdn.net/v/t1.18169-1/cp0/p50x50/12141559_1229348947091564_392787065700741349_n.jpg?_nc_cat=1&ccb=1-3&_nc_sid=dbb9e7&_nc_ohc=IJKSNO82KDEAX9nT_ic&_nc_ht=scontent-iad3-2.xx&tp=27&oh=3ceaa48e754a062ea03cd2682e4b7f01&oe=60D1BC7E",
                        "impressions": 1585258,
                        "mentions": 2547,
                        "name": "Skrill",
                        "pictures": 0,
                        "posts": 8,
                        "tags": 5674,
                        "total_engagement": 71169,
                        "url": "https://www.blinkfire.com/advertiser/brand/skrill",
                        "url_clicks": 19,
                        "valuation": 7877.92,
                        "videos": 71169
                    },
                    {
                        "entity_id": "bancobpm",
                        "hashtags": 0,
                        "image_url": "https://scontent-iad3-2.xx.fbcdn.net/v/t1.18169-1/cp0/p50x50/15740935_231240717316633_2687893059480384264_n.jpg?_nc_cat=107&ccb=1-3&_nc_sid=dbb9e7&_nc_eui2=AeE4Qw5kWXiDLqNBRzfJ25ruuIwZVUZjzw-4jBlVRmPPDy8k_sNQrm9h1vJxrAMbzoQ&_nc_ohc=BgZnQYT_JFMAX9gsxF6&_nc_oc=AQlyh5efwFnMnrKOVB6sd9c8rQ1CWugmf0ABjw-lT6_qLZgibrWZg2ECs6diXJJC1fk&_nc_ht=scontent-iad3-2.xx&tp=27&oh=e33cd406402b4db123b90067cc73f6d0&oe=60D11CEE",
                        "impressions": 3253703,
                        "mentions": 1446,
                        "name": "Banco BPM",
                        "pictures": 1650,
                        "posts": 10,
                        "tags": 7791,
                        "total_engagement": 52612,
                        "url": "https://www.blinkfire.com/advertiser/brand/bancobpm",
                        "url_clicks": 40,
                        "valuation": 3468.27,
                        "videos": 43171
                    },
                    {
                        "entity_id": "emirates-airlines",
                        "hashtags": 0,
                        "image_url": "https://lh3.googleusercontent.com/PvQATUYy6FU-xbw-r7fcyAtEdmmD7DCV037igEhoQPIav8oWBcWdkFrKbxOMV99TYNoJCYmih-ptDyfUJAwJnLjCyOC9",
                        "impressions": 1372178,
                        "mentions": 0,
                        "name": "Emirates Airline",
                        "pictures": 122,
                        "posts": 13,
                        "tags": 0,
                        "total_engagement": 22434,
                        "url": "https://www.blinkfire.com/advertiser/brand/emirates-airlines",
                        "url_clicks": 49,
                        "valuation": 481.1,
                        "videos": 22312
                    },
                    {
                        "entity_id": "theragun",
                        "hashtags": 0,
                        "image_url": "https://scontent-iad3-2.xx.fbcdn.net/v/t1.6435-1/cp0/c118.117.526.527a/s50x50/168560638_276711587274871_3733266912286937171_n.png?_nc_cat=101&ccb=1-3&_nc_sid=dbb9e7&_nc_ohc=tYfhHi8QFykAX8aoRxw&_nc_ht=scontent-iad3-2.xx&tp=30&oh=68ab21dce2fc2387454fa6b10532fe96&oe=60D24F12",
                        "impressions": 388460,
                        "mentions": 1992,
                        "name": "Therabody",
                        "pictures": 484,
                        "posts": 8,
                        "tags": 1573,
                        "total_engagement": 2476,
                        "url": "https://www.blinkfire.com/advertiser/brand/theragun",
                        "url_clicks": 103,
                        "valuation": 1017.95,
                        "videos": 1573
                    },
                    {
                        "entity_id": "starcasinosport",
                        "hashtags": 0,
                        "image_url": "https://scontent-iad3-2.xx.fbcdn.net/v/t1.6435-1/cp0/p50x50/85139602_142852560522443_7071761281765605376_n.png?_nc_cat=1&ccb=1-3&_nc_sid=dbb9e7&_nc_ohc=hR10n4UDp1AAX-cj2T4&_nc_ht=scontent-iad3-2.xx&tp=30&oh=c92ae43a847ae883fe14d8631688e9a9&oe=60D27E4A",
                        "impressions": 27500,
                        "mentions": 0,
                        "name": "StarCasinò Sport",
                        "pictures": 0,
                        "posts": 2,
                        "tags": 0,
                        "total_engagement": 275,
                        "url": "https://www.blinkfire.com/advertiser/brand/starcasinosport",
                        "url_clicks": 0,
                        "valuation": 18.16,
                        "videos": 275
                    },
                    {
                        "entity_id": "bioscalin",
                        "hashtags": 0,
                        "image_url": "https://scontent-iad3-2.xx.fbcdn.net/v/t1.18169-1/cp0/p50x50/17458283_431462150528029_1241742856890170079_n.png?_nc_cat=109&ccb=1-3&_nc_sid=dbb9e7&_nc_eui2=AeEBKA359BbGTNzFqaKbZu71bMliWx84QI9syWJbHzhAj2XTbpFy6uYoce5RhJDzmtk&_nc_ohc=hvFsIQJeIbYAX_lTdgK&_nc_ht=scontent-iad3-2.xx&tp=30&oh=f143dcd88020fdda36b1faac7c58defd&oe=60CE8898",
                        "impressions": 27500,
                        "mentions": 0,
                        "name": "Bioscalin",
                        "pictures": 0,
                        "posts": 2,
                        "tags": 0,
                        "total_engagement": 275,
                        "url": "https://www.blinkfire.com/advertiser/brand/bioscalin",
                        "url_clicks": 0,
                        "valuation": 19.53,
                        "videos": 275
                    },
                    {
                        "entity_id": "bmw",
                        "hashtags": 0,
                        "image_url": "https://lh3.googleusercontent.com/LdRae3QE_wwja8LfzduOGdpWlcA_CoFoCVWDWQDzQgHXZzC9dCQvXTdHtazKO-ENwvbflst09cg8vHJJkoSl2Jhvb3qB",
                        "impressions": 27500,
                        "mentions": 0,
                        "name": "BMW",
                        "pictures": 0,
                        "posts": 2,
                        "tags": 0,
                        "total_engagement": 275,
                        "url": "https://www.blinkfire.com/advertiser/brand/bmw",
                        "url_clicks": 0,
                        "valuation": 15.21,
                        "videos": 275
                    },
                    {
                        "entity_id": "frecciarossa",
                        "hashtags": 0,
                        "image_url": "https://lh3.googleusercontent.com/q8N55C0qR7Xdn2L-d4knaCarp_pbK-iHAoa634FePMKiKwXdUfEbC5VG3MlqDucamblQPfX61Shi7GF3YuNrS-1fltch",
                        "impressions": 27500,
                        "mentions": 0,
                        "name": "Frecciarossa",
                        "pictures": 0,
                        "posts": 2,
                        "tags": 0,
                        "total_engagement": 275,
                        "url": "https://www.blinkfire.com/advertiser/brand/frecciarossa",
                        "url_clicks": 0,
                        "valuation": 5.18,
                        "videos": 275
                    },
                    {
                        "entity_id": "dazn",
                        "hashtags": 0,
                        "image_url": "https://lh3.googleusercontent.com/NBOHCxBmdIFsc2FELDzzWYNO1EEasgJz_mGfucdn29hPs6VR-wBaBc3pJtfuYLSShKSgKINwAh_VKVSagEs7D73z4PY",
                        "impressions": 27500,
                        "mentions": 0,
                        "name": "DAZN",
                        "pictures": 0,
                        "posts": 2,
                        "tags": 0,
                        "total_engagement": 275,
                        "url": "https://www.blinkfire.com/advertiser/brand/dazn",
                        "url_clicks": 0,
                        "valuation": 16.16,
                        "videos": 275
                    },
                    {
                        "entity_id": "ea-sports",
                        "hashtags": 0,
                        "image_url": "https://lh3.googleusercontent.com/gCM8OYET7BxmPOtCYC7XPgwDk4wQSmAqstr5gIaGnQnkH0AwjKSoA61yenFywCqLEwsYI_eskSZMkQSY_UtcwPMX7RNf",
                        "impressions": 20800,
                        "mentions": 0,
                        "name": "EA Sports",
                        "pictures": 0,
                        "posts": 1,
                        "tags": 0,
                        "total_engagement": 208,
                        "url": "https://www.blinkfire.com/advertiser/brand/ea-sports",
                        "url_clicks": 0,
                        "valuation": 2.86,
                        "videos": 208
                    },
                    {
                        "entity_id": "a2aenergia",
                        "hashtags": 0,
                        "image_url": "https://scontent-iad3-2.xx.fbcdn.net/v/t1.18169-1/cp0/p50x50/14463002_553074221547262_906135881812306706_n.png?_nc_cat=103&ccb=1-3&_nc_sid=dbb9e7&_nc_ohc=WswLkjtVrxwAX8joG9N&_nc_ht=scontent-iad3-2.xx&tp=30&oh=b305c40e5bdd0a6b209d7f21cd57532d&oe=60CF6E76",
                        "impressions": 0,
                        "mentions": 0,
                        "name": "A2A Energia",
                        "pictures": 0,
                        "posts": 0,
                        "tags": 0,
                        "total_engagement": 0,
                        "url": "https://www.blinkfire.com/advertiser/brand/a2aenergia",
                        "url_clicks": 0,
                        "valuation": 0.0,
                        "videos": 0
                    }
                ],
                "totals": {
                    "hashtags": 38877,
                    "impressions": 14253068,
                    "mentions": 5985,
                    "name": "entity",
                    "pictures": 160977,
                    "posts": 77,
                    "tags": 15038,
                    "total_engagement": 437590,
                    "url_clicks": 396,
                    "valuation": 134129.32,
                    "videos": 268403
                }
            }
        },
        "medias": {
            "non_official": {},
            "official": {
                "sponsors": [
                    {
                        "entity_id": "emirates-airlines",
                        "hashtags": 0,
                        "image_url": "url---",
                        "impressions": 8958714,
                        "mentions": 0,
                        "name": "Emirates Airline",
                        "pictures": 135052,
                        "posts": 39,
                        "tags": 0,
                        "total_engagement": 186688,
                        "url": "url---",
                        "url_clicks": 0,
                        "valuation": 80623.15,
                        "videos": 51636
                    },
                    {
                        "entity_id": "puma",
                        "hashtags": 14,
                        "image_url": "url---",
                        "impressions": 1731164,
                        "mentions": 0,
                        "name": "Puma",
                        "pictures": 45427,
                        "posts": 17,
                        "tags": 0,
                        "total_engagement": 45427,
                        "url": "url---",
                        "url_clicks": 0,
                        "valuation": 26992.15,
                        "videos": 0
                    },
                    {
                        "entity_id": "dazn",
                        "hashtags": 0,
                        "image_url": "url---",
                        "impressions": 9750,
                        "mentions": 0,
                        "name": "DAZN",
                        "pictures": 195,
                        "posts": 1,
                        "tags": 0,
                        "total_engagement": 195,
                        "url": "url---",
                        "url_clicks": 0,
                        "valuation": 117.0,
                        "videos": 0
                    },
                    {
                        "entity_id": "bancobpm",
                        "hashtags": 0,
                        "image_url": "url---",
                        "impressions": 0,
                        "mentions": 0,
                        "name": "Banco BPM",
                        "pictures": 0,
                        "posts": 1,
                        "tags": 0,
                        "total_engagement": 0,
                        "url": "url---",
                        "url_clicks": 0,
                        "valuation": 0.0,
                        "videos": 0
                    }
                ],
                "totals": {
                    "hashtags": 14,
                    "impressions": 10699628,
                    "mentions": 0,
                    "name": "medias",
                    "pictures": 180674,
                    "posts": 58,
                    "tags": 0,
                    "total_engagement": 232310,
                    "url_clicks": 0,
                    "valuation": 107732.3,
                    "videos": 51636
                }
            }
        },
        "other_entities": {
            "non_official": {},
            "official": {
                "sponsors": [
                    {
                        "entity_id": "puma",
                        "hashtags": 0,
                        "image_url": "url---",
                        "impressions": 704,
                        "mentions": 8,
                        "name": "Puma",
                        "pictures": 0,
                        "posts": 1,
                        "tags": 0,
                        "total_engagement": 8,
                        "url": "url---",
                        "url_clicks": 0,
                        "valuation": 6.0,
                        "videos": 0
                    },
                    {
                        "entity_id": "skrill",
                        "hashtags": 0,
                        "image_url": "url...",
                        "impressions": 352,
                        "mentions": 4,
                        "name": "Skrill",
                        "pictures": 0,
                        "posts": 1,
                        "tags": 0,
                        "total_engagement": 4,
                        "url": "url---",
                        "url_clicks": 0,
                        "valuation": 3.0,
                        "videos": 0
                    }
                ],
                "totals": {
                    "hashtags": 0,
                    "impressions": 1056,
                    "mentions": 12,
                    "name": "other_entities",
                    "pictures": 0,
                    "posts": 2,
                    "tags": 0,
                    "total_engagement": 12,
                    "url_clicks": 0,
                    "valuation": 9.0,
                    "videos": 0
                }
            }
        },
        "overall": {
            "entity": {
                "hashtags": 38877,
                "impressions": 14253068,
                "mentions": 5985,
                "pictures": 160977,
                "posts": 77,
                "tags": 15038,
                "total_engagement": 437590,
                "url_clicks": 396,
                "valuation": 134129.32,
                "videos": 268403
            },
            "medias": {
                "hashtags": 14,
                "impressions": 10699628,
                "mentions": 0,
                "pictures": 180674,
                "posts": 58,
                "tags": 0,
                "total_engagement": 232310,
                "url_clicks": 0,
                "valuation": 107732.3,
                "videos": 51636
            },
            "other_entities": {
                "hashtags": 0,
                "impressions": 1056,
                "mentions": 12,
                "pictures": 0,
                "posts": 2,
                "tags": 0,
                "total_engagement": 12,
                "url_clicks": 0,
                "valuation": 9.0,
                "videos": 0
            },
            "players": {
                "hashtags": 0,
                "impressions": 13120100,
                "mentions": 0,
                "pictures": 262402,
                "posts": 1,
                "tags": 0,
                "total_engagement": 262402,
                "url_clicks": 0,
                "valuation": 157441.2,
                "videos": 0
            },
            "totals": {
                "hashtags": 38891,
                "impressions": 38073852,
                "mentions": 5997,
                "pictures": 604053,
                "posts": 138,
                "tags": 15038,
                "total_engagement": 932314,
                "url_clicks": 396,
                "valuation": 399311.82,
                "videos": 320039
            }
        },
        "players": {
            "non_official": {},
            "official": {
                "sponsors": [
                    {
                        "entity_id": "puma",
                        "hashtags": 0,
                        "image_url": "url---",
                        "impressions": 13120100,
                        "mentions": 0,
                        "name": "Puma",
                        "pictures": 262402,
                        "posts": 1,
                        "tags": 0,
                        "total_engagement": 262402,
                        "url": "url---",
                        "url_clicks": 0,
                        "valuation": 157441.2,
                        "videos": 0
                    }
                ]
            }
        }
    },
    "start_date": "2021-05-17"
}